<?xml version="1.0" encoding="UTF-8" standalone="no"?>
<svg width="11px" height="19px" viewBox="0 0 11 19" version="1.1" xmlns="http://www.w3.org/2000/svg" xmlns:xlink="http://www.w3.org/1999/xlink">
    <!-- Generator: Sketch 48.1 (47250) - http://www.bohemiancoding.com/sketch -->
    <title>Group 7</title>
    <desc>Created with Sketch.</desc>
    <defs></defs>
    <g id="Footer" stroke="none" stroke-width="1" fill-rule="evenodd" transform="translate(-697.000000, -345.000000)">
        <g id="Group-7" transform="translate(697.000000, 345.000000)" fill-rule="nonzero">
            <path d="M5.54769688,0 C2.86084245,0 0.682772834,2.20160741 0.682772834,4.91734074 C0.682772834,7.63314444 2.86084245,9.83489259 5.54769688,9.83489259 C8.23455131,9.83489259 10.4126209,7.63314444 10.4126209,4.91734074 C10.4126209,2.20160741 8.23455131,0 5.54769688,0 Z M5.54769688,6.9502 C4.43704499,6.9502 3.53664625,6.04002963 3.53664625,4.91741111 C3.53664625,3.79479259 4.43704499,2.88469259 5.54769688,2.88469259 C6.65834878,2.88469259 7.55874752,3.79479259 7.55874752,4.91741111 C7.55874752,6.04002963 6.65834878,6.9502 5.54769688,6.9502 Z" id="Shape"></path>
            <path d="M7.26522853,13.7476259 C9.21285511,13.3465852 10.379969,12.4143185 10.4417222,12.3642852 C11.0116336,11.9023037 11.1031842,11.0608148 10.6461273,10.4846926 C10.1891399,9.90864074 9.35669056,9.8161037 8.78663992,10.2780148 C8.77459562,10.2878667 7.52978549,11.2530667 5.48162726,11.2544741 C3.43353866,11.2530667 2.16241207,10.2878667 2.15036777,10.2780148 C1.58031714,9.8161037 0.747867771,9.90864074 0.290880429,10.4846926 C-0.166176533,11.0608148 -0.0746259004,11.9023037 0.495285492,12.3642852 C0.5578741,12.4150222 1.77316524,13.3715667 3.7753741,13.7631778 L0.984924733,16.7108519 C0.477810808,17.2424296 0.493057644,18.0888444 1.01896904,18.6014222 C1.27565891,18.8515889 1.60649435,18.9759333 1.93705131,18.9759333 C2.28362094,18.9759333 2.62984245,18.839063 2.88938676,18.5669407 L5.48169688,15.7757 L8.33584878,18.5850259 C8.85298802,19.1068926 9.69038043,19.1060481 10.206545,18.5835481 C10.7227095,18.0609778 10.722083,17.2144222 10.205083,16.6926963 L7.26522853,13.7476259 Z" id="Shape"></path>
        </g>
    </g>
</svg>